simulation/qsim/LogicalStep_Lab4.msim.vcd
$comment
	File created using the following command:
		vcd file LogicalStep_Lab4.msim.vcd -direction
$end
$date
	Sun Jul 13 13:58:42 2025
$end
$version
	ModelSim Version 10.5b
$end
$timescale
	1ps
$end

$scope module logicalstep_lab4_top_vhd_vec_tst $end
$var wire 1 ! blink_sig_out $end
$var wire 1 " clkin_50 $end
$var wire 1 # es_seg_a $end
$var wire 1 $ es_seg_d $end
$var wire 1 % es_seg_g $end
$var wire 1 & leds [7] $end
$var wire 1 ' leds [6] $end
$var wire 1 ( leds [5] $end
$var wire 1 ) leds [4] $end
$var wire 1 * leds [3] $end
$var wire 1 + leds [2] $end
$var wire 1 , leds [1] $end
$var wire 1 - leds [0] $end
$var wire 1 . ns_seg_a $end
$var wire 1 / ns_seg_d $end
$var wire 1 0 ns_seg_g $end
$var wire 1 1 pb_n [3] $end
$var wire 1 2 pb_n [2] $end
$var wire 1 3 pb_n [1] $end
$var wire 1 4 pb_n [0] $end
$var wire 1 5 rst_n $end
$var wire 1 6 seg7_char1 $end
$var wire 1 7 seg7_char2 $end
$var wire 1 8 seg7_data [6] $end
$var wire 1 9 seg7_data [5] $end
$var wire 1 : seg7_data [4] $end
$var wire 1 ; seg7_data [3] $end
$var wire 1 < seg7_data [2] $end
$var wire 1 = seg7_data [1] $end
$var wire 1 > seg7_data [0] $end
$var wire 1 ? sm_clken_out $end
$var wire 1 @ state [3] $end
$var wire 1 A state [2] $end
$var wire 1 B state [1] $end
$var wire 1 C state [0] $end
$var wire 1 D sw [7] $end
$var wire 1 E sw [6] $end
$var wire 1 F sw [5] $end
$var wire 1 G sw [4] $end
$var wire 1 H sw [3] $end
$var wire 1 I sw [2] $end
$var wire 1 J sw [1] $end
$var wire 1 K sw [0] $end

$scope module i1 $end
$var wire 1 L gnd $end
$var wire 1 M vcc $end
$var wire 1 N unknown $end
$var wire 1 O devoe $end
$var wire 1 P devclrn $end
$var wire 1 Q devpor $end
$var wire 1 R ww_devoe $end
$var wire 1 S ww_devclrn $end
$var wire 1 T ww_devpor $end
$var wire 1 U ww_clkin_50 $end
$var wire 1 V ww_rst_n $end
$var wire 1 W ww_pb_n [3] $end
$var wire 1 X ww_pb_n [2] $end
$var wire 1 Y ww_pb_n [1] $end
$var wire 1 Z ww_pb_n [0] $end
$var wire 1 [ ww_sw [7] $end
$var wire 1 \ ww_sw [6] $end
$var wire 1 ] ww_sw [5] $end
$var wire 1 ^ ww_sw [4] $end
$var wire 1 _ ww_sw [3] $end
$var wire 1 ` ww_sw [2] $end
$var wire 1 a ww_sw [1] $end
$var wire 1 b ww_sw [0] $end
$var wire 1 c ww_leds [7] $end
$var wire 1 d ww_leds [6] $end
$var wire 1 e ww_leds [5] $end
$var wire 1 f ww_leds [4] $end
$var wire 1 g ww_leds [3] $end
$var wire 1 h ww_leds [2] $end
$var wire 1 i ww_leds [1] $end
$var wire 1 j ww_leds [0] $end
$var wire 1 k ww_sm_clken_out $end
$var wire 1 l ww_blink_sig_out $end
$var wire 1 m ww_ns_seg_a $end
$var wire 1 n ww_ns_seg_d $end
$var wire 1 o ww_ns_seg_g $end
$var wire 1 p ww_es_seg_a $end
$var wire 1 q ww_es_seg_d $end
$var wire 1 r ww_es_seg_g $end
$var wire 1 s ww_state [3] $end
$var wire 1 t ww_state [2] $end
$var wire 1 u ww_state [1] $end
$var wire 1 v ww_state [0] $end
$var wire 1 w ww_seg7_data [6] $end
$var wire 1 x ww_seg7_data [5] $end
$var wire 1 y ww_seg7_data [4] $end
$var wire 1 z ww_seg7_data [3] $end
$var wire 1 { ww_seg7_data [2] $end
$var wire 1 | ww_seg7_data [1] $end
$var wire 1 } ww_seg7_data [0] $end
$var wire 1 ~ ww_seg7_char1 $end
$var wire 1 !! ww_seg7_char2 $end
$var wire 1 "! \pb_n[2]~input_o\ $end
$var wire 1 #! \pb_n[3]~input_o\ $end
$var wire 1 $! \sw[1]~input_o\ $end
$var wire 1 %! \sw[2]~input_o\ $end
$var wire 1 &! \sw[3]~input_o\ $end
$var wire 1 '! \sw[4]~input_o\ $end
$var wire 1 (! \sw[5]~input_o\ $end
$var wire 1 )! \sw[6]~input_o\ $end
$var wire 1 *! \sw[7]~input_o\ $end
$var wire 1 +! \seg7_data[6]~output_o\ $end
$var wire 1 ,! \leds[0]~output_o\ $end
$var wire 1 -! \leds[1]~output_o\ $end
$var wire 1 .! \leds[2]~output_o\ $end
$var wire 1 /! \leds[3]~output_o\ $end
$var wire 1 0! \leds[4]~output_o\ $end
$var wire 1 1! \leds[5]~output_o\ $end
$var wire 1 2! \leds[6]~output_o\ $end
$var wire 1 3! \leds[7]~output_o\ $end
$var wire 1 4! \sm_clken_out~output_o\ $end
$var wire 1 5! \blink_sig_out~output_o\ $end
$var wire 1 6! \ns_seg_a~output_o\ $end
$var wire 1 7! \ns_seg_d~output_o\ $end
$var wire 1 8! \ns_seg_g~output_o\ $end
$var wire 1 9! \es_seg_a~output_o\ $end
$var wire 1 :! \es_seg_d~output_o\ $end
$var wire 1 ;! \es_seg_g~output_o\ $end
$var wire 1 <! \state[0]~output_o\ $end
$var wire 1 =! \state[1]~output_o\ $end
$var wire 1 >! \state[2]~output_o\ $end
$var wire 1 ?! \state[3]~output_o\ $end
$var wire 1 @! \seg7_data[0]~output_o\ $end
$var wire 1 A! \seg7_data[1]~output_o\ $end
$var wire 1 B! \seg7_data[2]~output_o\ $end
$var wire 1 C! \seg7_data[3]~output_o\ $end
$var wire 1 D! \seg7_data[4]~output_o\ $end
$var wire 1 E! \seg7_data[5]~output_o\ $end
$var wire 1 F! \seg7_char1~output_o\ $end
$var wire 1 G! \seg7_char2~output_o\ $end
$var wire 1 H! \clkin_50~input_o\ $end
$var wire 1 I! \pb_n[0]~input_o\ $end
$var wire 1 J! \INST0|pb_n_filtered[0]~0_combout\ $end
$var wire 1 K! \rst_n~input_o\ $end
$var wire 1 L! \INST0|rst_n_filtered~0_combout\ $end
$var wire 1 M! \hold_ns|sreg~0_combout\ $end
$var wire 1 N! \hold_ns|sreg~q\ $end
$var wire 1 O! \pb_n[1]~input_o\ $end
$var wire 1 P! \INST0|pb_n_filtered[1]~1_combout\ $end
$var wire 1 Q! \TLC_SM|Selector1~0_combout\ $end
$var wire 1 R! \INST3|clk_divider:counter[0]~1_combout\ $end
$var wire 1 S! \INST3|clk_divider:counter[0]~q\ $end
$var wire 1 T! \INST3|clk_divider:counter[0]~2\ $end
$var wire 1 U! \INST3|clk_divider:counter[1]~1_combout\ $end
$var wire 1 V! \INST3|clk_divider:counter[1]~q\ $end
$var wire 1 W! \INST3|clk_divider:counter[1]~2\ $end
$var wire 1 X! \INST3|clk_divider:counter[2]~1_combout\ $end
$var wire 1 Y! \INST3|clk_divider:counter[2]~q\ $end
$var wire 1 Z! \INST3|clk_divider:counter[2]~2\ $end
$var wire 1 [! \INST3|clk_divider:counter[3]~1_combout\ $end
$var wire 1 \! \INST3|clk_divider:counter[3]~q\ $end
$var wire 1 ]! \INST3|clk_divider:counter[3]~2\ $end
$var wire 1 ^! \INST3|clk_divider:counter[4]~1_combout\ $end
$var wire 1 _! \INST3|clk_divider:counter[4]~q\ $end
$var wire 1 `! \INST3|clk_reg_extend~0_combout\ $end
$var wire 1 a! \INST3|clk_reg_extend~1_combout\ $end
$var wire 1 b! \INST3|sm_clken~combout\ $end
$var wire 1 c! \TLC_SM|current_state.S14~q\ $end
$var wire 1 d! \hold_ew|sreg~0_combout\ $end
$var wire 1 e! \hold_ew|sreg~q\ $end
$var wire 1 f! \sw[0]~input_o\ $end
$var wire 1 g! \TLC_SM|Selector2~0_combout\ $end
$var wire 1 h! \TLC_SM|current_state.S15~q\ $end
$var wire 1 i! \TLC_SM|next_state.S0~0_combout\ $end
$var wire 1 j! \TLC_SM|current_state.S0~q\ $end
$var wire 1 k! \TLC_SM|next_state.S1~0_combout\ $end
$var wire 1 l! \TLC_SM|current_state.S1~q\ $end
$var wire 1 m! \TLC_SM|current_state.S2~q\ $end
$var wire 1 n! \TLC_SM|current_state.S3~q\ $end
$var wire 1 o! \TLC_SM|current_state.S4~q\ $end
$var wire 1 p! \TLC_SM|current_state.S5~q\ $end
$var wire 1 q! \TLC_SM|Selector0~0_combout\ $end
$var wire 1 r! \TLC_SM|current_state.S6~q\ $end
$var wire 1 s! \TLC_SM|current_state.S7~q\ $end
$var wire 1 t! \TLC_SM|current_state.S8~q\ $end
$var wire 1 u! \TLC_SM|next_state.S9~0_combout\ $end
$var wire 1 v! \TLC_SM|current_state.S9~q\ $end
$var wire 1 w! \TLC_SM|current_state.S10~q\ $end
$var wire 1 x! \TLC_SM|current_state.S11~q\ $end
$var wire 1 y! \TLC_SM|current_state.S12~q\ $end
$var wire 1 z! \TLC_SM|current_state.S13~q\ $end
$var wire 1 {! \INST3|blink_sig~0_combout\ $end
$var wire 1 |! \INST3|blink_sig~q\ $end
$var wire 1 }! \SEG7MUX|DOUT_TEMP[6]~2_combout\ $end
$var wire 1 ~! \SEG7MUX|clk_proc:COUNT[0]~0_combout\ $end
$var wire 1 !" \SEG7MUX|clk_proc:COUNT[0]~q\ $end
$var wire 1 "" \SEG7MUX|clk_proc:COUNT[1]~1_combout\ $end
$var wire 1 #" \SEG7MUX|clk_proc:COUNT[1]~q\ $end
$var wire 1 $" \SEG7MUX|clk_proc:COUNT[1]~2\ $end
$var wire 1 %" \SEG7MUX|clk_proc:COUNT[2]~1_combout\ $end
$var wire 1 &" \SEG7MUX|clk_proc:COUNT[2]~q\ $end
$var wire 1 '" \SEG7MUX|clk_proc:COUNT[2]~2\ $end
$var wire 1 (" \SEG7MUX|clk_proc:COUNT[3]~1_combout\ $end
$var wire 1 )" \SEG7MUX|clk_proc:COUNT[3]~q\ $end
$var wire 1 *" \SEG7MUX|clk_proc:COUNT[3]~2\ $end
$var wire 1 +" \SEG7MUX|clk_proc:COUNT[4]~1_combout\ $end
$var wire 1 ," \SEG7MUX|clk_proc:COUNT[4]~q\ $end
$var wire 1 -" \SEG7MUX|clk_proc:COUNT[4]~2\ $end
$var wire 1 ." \SEG7MUX|clk_proc:COUNT[5]~1_combout\ $end
$var wire 1 /" \SEG7MUX|clk_proc:COUNT[5]~q\ $end
$var wire 1 0" \SEG7MUX|clk_proc:COUNT[5]~2\ $end
$var wire 1 1" \SEG7MUX|clk_proc:COUNT[6]~1_combout\ $end
$var wire 1 2" \SEG7MUX|clk_proc:COUNT[6]~q\ $end
$var wire 1 3" \SEG7MUX|clk_proc:COUNT[6]~2\ $end
$var wire 1 4" \SEG7MUX|clk_proc:COUNT[7]~1_combout\ $end
$var wire 1 5" \SEG7MUX|clk_proc:COUNT[7]~q\ $end
$var wire 1 6" \SEG7MUX|clk_proc:COUNT[7]~2\ $end
$var wire 1 7" \SEG7MUX|clk_proc:COUNT[8]~1_combout\ $end
$var wire 1 8" \SEG7MUX|clk_proc:COUNT[8]~q\ $end
$var wire 1 9" \SEG7MUX|clk_proc:COUNT[8]~2\ $end
$var wire 1 :" \SEG7MUX|clk_proc:COUNT[9]~1_combout\ $end
$var wire 1 ;" \SEG7MUX|clk_proc:COUNT[9]~q\ $end
$var wire 1 <" \SEG7MUX|clk_proc:COUNT[9]~2\ $end
$var wire 1 =" \SEG7MUX|clk_proc:COUNT[10]~1_combout\ $end
$var wire 1 >" \SEG7MUX|clk_proc:COUNT[10]~q\ $end
$var wire 1 ?" \SEG7MUX|DOUT_TEMP[6]~3_combout\ $end
$var wire 1 @" \TLC_SM|ns_crossing~combout\ $end
$var wire 1 A" \TLC_SM|ew_crossing~combout\ $end
$var wire 1 B" \TLC_SM|WideOr12~0_combout\ $end
$var wire 1 C" \SEG7MUX|DOUT[0]~0_combout\ $end
$var wire 1 D" \TLC_SM|WideOr12~combout\ $end
$var wire 1 E" \TLC_SM|WideOr11~0_combout\ $end
$var wire 1 F" \TLC_SM|WideOr10~0_combout\ $end
$var wire 1 G" \TLC_SM|WideOr11~combout\ $end
$var wire 1 H" \TLC_SM|ns_display[6]~0_combout\ $end
$var wire 1 I" \TLC_SM|WideOr10~combout\ $end
$var wire 1 J" \TLC_SM|WideOr7~0_combout\ $end
$var wire 1 K" \TLC_SM|WideOr7~1_combout\ $end
$var wire 1 L" \TLC_SM|WideOr9~combout\ $end
$var wire 1 M" \TLC_SM|Selector6~0_combout\ $end
$var wire 1 N" \TLC_SM|Selector5~0_combout\ $end
$var wire 1 O" \SEG7MUX|DOUT[0]~1_combout\ $end
$var wire 1 P" \SEG7MUX|DOUT[0]~2_combout\ $end
$var wire 1 Q" \SEG7MUX|DOUT[3]~3_combout\ $end
$var wire 1 R" \SEG7MUX|DOUT[3]~4_combout\ $end
$var wire 1 S" \INST0|sreg4\ [3] $end
$var wire 1 T" \INST0|sreg4\ [2] $end
$var wire 1 U" \INST0|sreg4\ [1] $end
$var wire 1 V" \INST0|sreg4\ [0] $end
$var wire 1 W" \INST3|clk_reg_extend\ [1] $end
$var wire 1 X" \INST3|clk_reg_extend\ [0] $end
$var wire 1 Y" \INST0|sreg1\ [3] $end
$var wire 1 Z" \INST0|sreg1\ [2] $end
$var wire 1 [" \INST0|sreg1\ [1] $end
$var wire 1 \" \INST0|sreg1\ [0] $end
$var wire 1 ]" \sync_pb0|sreg\ [1] $end
$var wire 1 ^" \sync_pb0|sreg\ [0] $end
$var wire 1 _" \INST2|sreg\ [1] $end
$var wire 1 `" \INST2|sreg\ [0] $end
$var wire 1 a" \sync_sw0|sreg\ [1] $end
$var wire 1 b" \sync_sw0|sreg\ [0] $end
$var wire 1 c" \sync_pb1|sreg\ [1] $end
$var wire 1 d" \sync_pb1|sreg\ [0] $end
$var wire 1 e" \INST0|sreg0\ [3] $end
$var wire 1 f" \INST0|sreg0\ [2] $end
$var wire 1 g" \INST0|sreg0\ [1] $end
$var wire 1 h" \INST0|sreg0\ [0] $end
$var wire 1 i" \ALT_INV_rst_n~input_o\ $end
$var wire 1 j" \INST2|ALT_INV_sreg\ [1] $end
$var wire 1 k" \TLC_SM|ALT_INV_ns_display[6]~0_combout\ $end
$var wire 1 l" \SEG7MUX|ALT_INV_clk_proc:COUNT[10]~q\ $end
$upscope $end
$upscope $end
$enddefinitions $end
#0
$dumpvars
0!
0"
1#
0$
0%
1.
0/
00
05
16
07
0?
0L
1M
xN
1O
1P
1Q
1R
1S
1T
0U
0V
0k
0l
1m
0n
0o
1p
0q
0r
1~
0!!
x"!
x#!
x$!
x%!
x&!
x'!
x(!
x)!
x*!
0+!
0,!
0-!
1.!
0/!
00!
01!
02!
03!
04!
05!
16!
07!
08!
19!
0:!
0;!
0<!
0=!
0>!
0?!
0@!
0A!
0B!
1C!
0D!
0E!
1F!
0G!
0H!
xI!
1J!
0K!
1L!
0M!
0N!
xO!
1P!
0Q!
1R!
0S!
0T!
0U!
0V!
1W!
0X!
0Y!
0Z!
0[!
0\!
1]!
0^!
0_!
0`!
0a!
0b!
0c!
0d!
0e!
xf!
0g!
0h!
1i!
0j!
1k!
0l!
0m!
0n!
0o!
0p!
0q!
0r!
0s!
0t!
0u!
0v!
0w!
0x!
0y!
0z!
0{!
0|!
0}!
1~!
0!"
0""
0#"
0$"
0%"
0&"
1'"
0("
0)"
0*"
0+"
0,"
1-"
0."
0/"
00"
01"
02"
13"
04"
05"
06"
07"
08"
19"
0:"
0;"
0<"
0="
0>"
0?"
0@"
1A"
0B"
1C"
0D"
0E"
1F"
0G"
1H"
0I"
1J"
1K"
0L"
1M"
0N"
0O"
0P"
0Q"
1R"
1i"
0k"
1l"
xW
xX
xY
xZ
x[
x\
x]
x^
x_
x`
xa
xb
0c
0d
0e
0f
0g
1h
0i
0j
0s
0t
0u
0v
0w
0x
0y
1z
0{
0|
0}
0S"
0T"
0U"
0V"
0W"
0X"
0Y"
0Z"
0["
0\"
0]"
0^"
0_"
0`"
0a"
0b"
0c"
0d"
0e"
0f"
0g"
0h"
1j"
0&
0'
0(
0)
0*
1+
0,
0-
x1
x2
x3
x4
08
09
0:
1;
0<
0=
0>
0@
0A
0B
0C
xD
xE
xF
xG
xH
xI
xJ
xK
$end
#10000
1"
1U
1H!
xh"
1`"
1^"
x\"
1d"
xb"
1!"
0~!
1""
#20000
0"
0U
0H!
#30000
1"
1U
1H!
xg"
1_"
1]"
x["
1c"
xa"
0!"
1#"
0j"
1~!
1d!
xP!
1M!
xJ!
0^"
0]"
0d"
0c"
0b"
0a"
0d!
0M!
#40000
0"
0U
0H!
#50000
1"
1U
1H!
xf"
xZ"
1!"
0~!
0""
1$"
1%"
#60000
0"
0U
0H!
#70000
1"
1U
1H!
xe"
xY"
0!"
0#"
1&"
0%"
0'"
1~!
0$"
1%"
1'"
1("
0("
#80000
0"
0U
0H!
#90000
1"
1U
1H!
1!"
0~!
1""
#100000
0"
15
0U
1V
1K!
0H!
0i"
#110000
1"
1U
1H!
1V"
1S!
0!"
1#"
1~!
0R!
1T!
1U!
#120000
0"
0U
0H!
#130000
1"
1U
1H!
1U"
0S!
1V!
1!"
0~!
0""
1$"
0U!
0W!
1R!
0T!
0L!
1U!
1W!
1X!
0%"
0'"
1("
0X!
#140000
0"
0U
0H!
#150000
1"
1U
1H!
1T"
0`"
1S!
0!"
0#"
0&"
1)"
0("
1*"
1%"
1'"
1~!
0$"
0R!
1T!
0U!
0W!
0%"
1("
0*"
1+"
0+"
1X!
#160000
0"
0U
0H!
#170000
1"
1U
1H!
1S"
0_"
0S!
0V!
1Y!
1!"
1j"
0~!
1""
0X!
1Z!
1{!
1U!
1W!
1R!
0T!
0U!
1X!
0Z!
1[!
0[!
#180000
0"
0U
0H!
#190000
1"
1U
1H!
x^"
xd"
1S!
xb"
1|!
0!"
1#"
15!
1~!
0R!
1T!
1l
1U!
1!
#200000
0"
0U
0H!
#210000
1"
1U
1H!
x]"
xc"
0S!
1V!
xa"
1!"
0~!
0""
1$"
0U!
0W!
1R!
0T!
xd!
xM!
1U!
1W!
0X!
1Z!
1%"
1[!
1X!
0Z!
0[!
#220000
0"
0U
0H!
#230000
1"
1U
1H!
xN!
1S!
xe!
0!"
0#"
1&"
x/!
x-!
0%"
0'"
1~!
0$"
0R!
1T!
xk!
xq!
xg
xi
0U!
0W!
1%"
1'"
0("
1*"
x,
x*
1+"
1("
0*"
0X!
1Z!
1[!
0+"
#240000
0"
0U
0H!
#250000
1"
1U
1H!
0S!
0V!
0Y!
1\!
1!"
0~!
1""
0[!
0]!
1X!
0Z!
0{!
1U!
1W!
1R!
0T!
0U!
0X!
1[!
1]!
1^!
0^!
#260000
0"
0U
0H!
#270000
1"
1U
1H!
1S!
0|!
0!"
1#"
05!
1~!
0R!
1T!
0l
1U!
0!
#280000
0"
0U
0H!
#290000
1"
1U
1H!
0S!
1V!
1!"
0~!
0""
1$"
0U!
0W!
1R!
0T!
1U!
1W!
1X!
0%"
0'"
0("
1*"
0X!
1+"
#300000
0"
0U
0H!
#310000
1"
1U
1H!
1S!
0!"
0#"
0&"
0)"
1,"
0+"
0-"
1("
0*"
1%"
1'"
1~!
0$"
0R!
1T!
0U!
0W!
0%"
0("
1+"
1-"
1."
0."
1X!
#320000
0"
0U
0H!
#330000
1"
1U
1H!
0S!
0V!
1Y!
1!"
0~!
1""
0X!
1Z!
1{!
1U!
1W!
1R!
0T!
0U!
1X!
0Z!
0[!
0]!
1^!
1[!
1]!
0^!
#340000
0"
0U
0H!
#350000
1"
1U
1H!
1S!
1|!
0!"
1#"
15!
1~!
0R!
1T!
1l
1U!
1!
#360000
0"
0U
0H!
#370000
1"
1U
1H!
0S!
1V!
1!"
0~!
0""
1$"
0U!
0W!
1R!
0T!
1U!
1W!
0X!
1Z!
1%"
0[!
0]!
1X!
0Z!
1[!
1]!
1^!
0^!
#380000
0"
0U
0H!
#390000
1"
1U
1H!
1S!
0!"
0#"
1&"
0%"
0'"
1~!
0$"
0R!
1T!
0U!
0W!
1%"
1'"
1("
0("
0X!
1Z!
0[!
0]!
1^!
#400000
0"
0U
0H!
#410000
1"
1U
1H!
0S!
0V!
0Y!
0\!
1_!
1!"
0~!
1""
0^!
1`!
1[!
1]!
1X!
0Z!
0{!
1U!
1W!
1R!
0T!
0U!
0X!
0[!
1^!
#420000
0"
0U
0H!
#430000
1"
1U
1H!
1S!
1X"
0|!
0!"
1#"
05!
1~!
1a!
1b!
0R!
1T!
0l
14!
1U!
0!
1k
1?
#440000
0"
0U
0H!
#450000
1"
1U
1H!
0S!
1V!
1W"
1j!
xl!
xr!
1!"
0~!
0""
1$"
xF"
xC"
0k!
0q!
xA"
1O"
0b!
0U!
0W!
1R!
0T!
04!
x.!
1U!
1W!
1X!
xR"
xD"
xP"
xG"
xI"
0%"
0'"
0k
xh
x2!
x>!
x1!
x=!
x@!
x0!
x<!
xC!
1("
0X!
0?
x+
xd
xt
xe
xu
x}
xf
xv
xz
x)
x(
x'
xC
xB
xA
x>
x;
#460000
0"
0U
0H!
#470000
1"
1U
1H!
1S!
0!"
0#"
0&"
1)"
0("
1*"
1%"
1'"
1~!
0$"
0R!
1T!
0U!
0W!
0%"
1("
0*"
0+"
0-"
1."
1+"
1-"
1X!
0."
#480000
0"
0U
0H!
#490000
1"
1U
1H!
0S!
0V!
1Y!
1!"
0~!
1""
0X!
1Z!
1{!
1U!
1W!
1R!
0T!
0U!
1X!
0Z!
1[!
0[!
#500000
0"
0U
0H!
#510000
1"
1U
1H!
1S!
1|!
0!"
1#"
15!
1~!
0R!
1T!
1l
1U!
1!
#520000
0"
0U
0H!
#530000
1"
1U
1H!
0S!
1V!
1!"
0~!
0""
1$"
0U!
0W!
1R!
0T!
1U!
1W!
0X!
1Z!
1%"
1[!
1X!
0Z!
0[!
#540000
0"
0U
0H!
#550000
1"
1U
1H!
1S!
0!"
0#"
1&"
0%"
0'"
1~!
0$"
0R!
1T!
0U!
0W!
1%"
1'"
0("
1*"
0+"
0-"
1("
0*"
0X!
1Z!
1[!
1+"
1-"
1."
0."
#560000
0"
0U
0H!
#570000
1"
1U
1H!
0S!
0V!
0Y!
1\!
1!"
0~!
1""
0[!
0]!
1X!
0Z!
0{!
1U!
1W!
1R!
0T!
0U!
0X!
1[!
1]!
0^!
1^!
#580000
0"
0U
0H!
#590000
1"
1U
1H!
1S!
0|!
0!"
1#"
05!
1~!
0R!
1T!
0l
1U!
0!
#600000
0"
0U
0H!
#610000
1"
1U
1H!
0S!
1V!
1!"
0~!
0""
1$"
0U!
0W!
1R!
0T!
1U!
1W!
1X!
0%"
0'"
0("
1*"
0X!
0+"
0-"
1."
#620000
0"
0U
0H!
#630000
1"
1U
1H!
1S!
0!"
0#"
0&"
0)"
0,"
1/"
0."
10"
1+"
1-"
1("
0*"
1%"
1'"
1~!
0$"
0R!
1T!
0U!
0W!
0%"
0("
0+"
1."
00"
11"
01"
1X!
#640000
0"
0U
0H!
#650000
1"
1U
1H!
0S!
0V!
1Y!
1!"
0~!
1""
0X!
1Z!
1{!
1U!
1W!
1R!
0T!
0U!
1X!
0Z!
0[!
0]!
0^!
1[!
1]!
1^!
#660000
0"
0U
0H!
#670000
1"
1U
1H!
1S!
1|!
0!"
1#"
15!
1~!
0R!
1T!
1l
1U!
1!
#680000
0"
0U
0H!
#690000
1"
1U
1H!
0S!
1V!
1!"
0~!
0""
1$"
0U!
0W!
1R!
0T!
1U!
1W!
0X!
1Z!
1%"
0[!
0]!
1X!
0Z!
1[!
1]!
0^!
1^!
#700000
0"
0U
0H!
#710000
1"
1U
1H!
1S!
0!"
0#"
1&"
0%"
0'"
1~!
0$"
0R!
1T!
0U!
0W!
1%"
1'"
1("
0("
0X!
1Z!
0[!
0]!
0^!
#720000
0"
0U
0H!
#730000
1"
1U
1H!
0S!
0V!
0Y!
0\!
0_!
1!"
0~!
1""
1^!
0`!
1[!
1]!
1X!
0Z!
0{!
1U!
1W!
1R!
0T!
0U!
0X!
0[!
0^!
#740000
0"
0U
0H!
#750000
1"
1U
1H!
1S!
0X"
0|!
0!"
1#"
05!
1~!
0a!
0R!
1T!
0l
1U!
0!
#760000
0"
0U
0H!
#770000
1"
1U
1H!
0S!
1V!
0W"
1!"
0~!
0""
1$"
0U!
0W!
1R!
0T!
1U!
1W!
1X!
0%"
0'"
1("
0X!
#780000
0"
0U
0H!
#790000
1"
1U
1H!
1S!
0!"
0#"
0&"
1)"
0("
1*"
1%"
1'"
1~!
0$"
0R!
1T!
0U!
0W!
0%"
1("
0*"
1+"
0+"
1X!
#800000
0"
0U
0H!
#810000
1"
1U
1H!
0S!
0V!
1Y!
1!"
0~!
1""
0X!
1Z!
1{!
1U!
1W!
1R!
0T!
0U!
1X!
0Z!
1[!
0[!
#820000
0"
0U
0H!
#830000
1"
1U
1H!
1S!
1|!
0!"
1#"
15!
1~!
0R!
1T!
1l
1U!
1!
#840000
0"
0U
0H!
#850000
1"
1U
1H!
0S!
1V!
1!"
0~!
0""
1$"
0U!
0W!
1R!
0T!
1U!
1W!
0X!
1Z!
1%"
1[!
1X!
0Z!
0[!
#860000
0"
0U
0H!
#870000
1"
1U
1H!
1S!
0!"
0#"
1&"
0%"
0'"
1~!
0$"
0R!
1T!
0U!
0W!
1%"
1'"
0("
1*"
1+"
1("
0*"
0X!
1Z!
1[!
0+"
#880000
0"
0U
0H!
#890000
1"
1U
1H!
0S!
0V!
0Y!
1\!
1!"
0~!
1""
0[!
0]!
1X!
0Z!
0{!
1U!
1W!
1R!
0T!
0U!
0X!
1[!
1]!
1^!
0^!
#900000
0"
0U
0H!
#910000
1"
1U
1H!
1S!
0|!
0!"
1#"
05!
1~!
0R!
1T!
0l
1U!
0!
#920000
0"
0U
0H!
#930000
1"
1U
1H!
0S!
1V!
1!"
0~!
0""
1$"
0U!
0W!
1R!
0T!
1U!
1W!
1X!
0%"
0'"
0("
1*"
0X!
1+"
#940000
0"
0U
0H!
#950000
1"
1U
1H!
1S!
0!"
0#"
0&"
0)"
1,"
0+"
0-"
1("
0*"
1%"
1'"
1~!
0$"
0R!
1T!
0U!
0W!
0%"
0("
1+"
1-"
0."
10"
11"
1."
00"
1X!
01"
#960000
0"
0U
0H!
#970000
1"
1U
1H!
0S!
0V!
1Y!
1!"
0~!
1""
0X!
1Z!
1{!
1U!
1W!
1R!
0T!
0U!
1X!
0Z!
0[!
0]!
1^!
1[!
1]!
0^!
#980000
0"
0U
0H!
#990000
1"
1U
1H!
1S!
1|!
0!"
1#"
15!
1~!
0R!
1T!
1l
1U!
1!
#1000000
0"
0U
0H!
#1010000
1"
1U
1H!
0S!
1V!
1!"
0~!
0""
1$"
0U!
0W!
1R!
0T!
1U!
1W!
0X!
1Z!
1%"
0[!
0]!
1X!
0Z!
1[!
1]!
1^!
0^!
#1020000
0"
0U
0H!
#1030000
1"
1U
1H!
1S!
0!"
0#"
1&"
0%"
0'"
1~!
0$"
0R!
1T!
0U!
0W!
1%"
1'"
1("
0("
0X!
1Z!
0[!
0]!
1^!
#1040000
0"
0U
0H!
#1050000
1"
1U
1H!
0S!
0V!
0Y!
0\!
1_!
1!"
0~!
1""
0^!
1`!
1[!
1]!
1X!
0Z!
0{!
1U!
1W!
1R!
0T!
0U!
0X!
0[!
1^!
#1060000
0"
0U
0H!
#1070000
1"
1U
1H!
1S!
1X"
0|!
0!"
1#"
05!
1~!
1a!
1b!
0R!
1T!
0l
14!
1U!
0!
1k
1?
#1080000
0"
0U
0H!
#1090000
1"
1U
1H!
0S!
1V!
1W"
0l!
xm!
0r!
xs!
1!"
0~!
0""
1$"
xB"
xE"
xO"
0A"
1C"
0b!
0U!
0W!
1R!
0T!
04!
0.!
1U!
1W!
1X!
0R"
0%"
0'"
0k
0h
0C!
1("
0X!
0?
0+
0z
0;
#1100000
0"
0U
0H!
#1110000
1"
1U
1H!
1S!
0!"
0#"
0&"
1)"
0("
1*"
1%"
1'"
1~!
0$"
0R!
1T!
0U!
0W!
0%"
1("
0*"
0+"
0-"
0."
10"
1+"
1-"
1X!
1."
00"
11"
01"
#1120000
0"
0U
0H!
#1130000
1"
1U
1H!
0S!
0V!
1Y!
1!"
0~!
1""
0X!
1Z!
1{!
1U!
1W!
1R!
0T!
0U!
1X!
0Z!
1[!
0[!
#1140000
0"
0U
0H!
#1150000
1"
1U
1H!
1S!
1|!
0!"
1#"
15!
1~!
xQ"
0R!
1T!
1l
1U!
xR"
1!
xC!
xz
x;
#1160000
0"
0U
0H!
#1170000
1"
1U
1H!
0S!
1V!
1!"
0~!
0""
1$"
0U!
0W!
1R!
0T!
1U!
1W!
0X!
1Z!
1%"
1[!
1X!
0Z!
0[!
#1180000
0"
0U
0H!
#1190000
1"
1U
1H!
1S!
0!"
0#"
1&"
0%"
0'"
1~!
0$"
0R!
1T!
0U!
0W!
1%"
1'"
0("
1*"
0+"
0-"
1("
0*"
0X!
1Z!
1[!
1+"
1-"
0."
10"
11"
1."
00"
01"
#1200000
0"
0U
0H!
#1210000
1"
1U
1H!
0S!
0V!
0Y!
1\!
1!"
0~!
1""
0[!
0]!
1X!
0Z!
0{!
1U!
1W!
1R!
0T!
0U!
0X!
1[!
1]!
0^!
1^!
#1220000
0"
0U
0H!
#1230000
1"
1U
1H!
1S!
0|!
0!"
1#"
05!
1~!
0Q"
0R!
1T!
0l
1U!
0R"
0!
0C!
0z
0;
#1240000
0"
0U
0H!
#1250000
1"
1U
1H!
0S!
1V!
1!"
0~!
0""
1$"
0U!
0W!
1R!
0T!
1U!
1W!
1X!
0%"
0'"
0("
1*"
0X!
0+"
0-"
0."
10"
11"
#1260000
0"
0U
0H!
